{
  "project_info": {
    "project_number": "808066891113",
    "firebase_url": "https://mstore-t8398.firebaseio.com",
    "project_id": "mstore-t8398",
    "storage_bucket": "mstore-t8398.appspot.com"
  },
  "client": [
    {
      "client_info": {
        "mobilesdk_app_id": "1:808066891113:android:0c7830229b435f5f8351f8",
        "android_client_info": {
          "package_name": "com.mstore"
        }
      },
      "oauth_client": [
        {
          "client_id": "808066891113-09ail7i7otlq1qitr1pnudao85otf9kd.apps.googleusercontent.com",
          "client_type": 1,
          "android_info": {
            "package_name": "com.mstore",
            "certificate_hash": "5e8f16062ea3cd2c4a0d547876baa6f38cabf625"
          }
        },
        {
          "client_id": "808066891113-gkecm1aguschpel4af4iqs00eg8mc2fg.apps.googleusercontent.com",
          "client_type": 3
        }
      ],
      "api_key": [
        {
          "current_key": "AIzaSyCYUctES6jwJHDudjc_GiGVHnTxEKccS3s"
        }
      ],
      "services": {
        "appinvite_service": {
          "other_platform_oauth_client": [
            {
              "client_id": "808066891113-gkecm1aguschpel4af4iqs00eg8mc2fg.apps.googleusercontent.com",
              "client_type": 3
            }
          ]
        }
      }
    },
    {
      "client_info": {
        "mobilesdk_app_id": "1:808066891113:android:2d364adcb27368dd8351f8",
        "android_client_info": {
          "package_name": "com.mstoreapp"
        }
      },
      "oauth_client": [
        {
          "client_id": "808066891113-cn24cqvi5jau6dape8780qtl1asdtgct.apps.googleusercontent.com",
          "client_type": 1,
          "android_info": {
            "package_name": "com.mstoreapp",
            "certificate_hash": "5e8f16062ea3cd2c4a0d547876baa6f38cabf625"
          }
        },
        {
          "client_id": "808066891113-gkecm1aguschpel4af4iqs00eg8mc2fg.apps.googleusercontent.com",
          "client_type": 3
        }
      ],
      "api_key": [
        {
          "current_key": "AIzaSyCYUctES6jwJHDudjc_GiGVHnTxEKccS3s"
        }
      ],
      "services": {
        "appinvite_service": {
          "other_platform_oauth_client": [
            {
              "client_id": "808066891113-gkecm1aguschpel4af4iqs00eg8mc2fg.apps.googleusercontent.com",
              "client_type": 3
            }
          ]
        }
      }
    }
  ],
  "configuration_version": "1"
}